{
	"fao": {
		".we-can-help button div" : "Guest Assitance",
		".we-can-help button img" : {"src" : "toolkit/images/fao/global-nav/fao-icon-guest-assistance.png"},
		".shopping-cart-header-text" : "<img src=\"toolkit/images/fao/cart/fao-logo-cart.png\" alt=\"cart logo\" />"
	}
}