{
	"section-1" : {
		"header" : "<img src=\"/mwodt-static/assets/images/fao/home/wishes-mid.png\" alt=\"only-at-fao\" />",
		"p" : "Grant their wish in a very big way",
		"button" : "Shop Exclusive Toys and Games"
	},
	"section-2" : {
		"header" : "<img src=\"/mwodt-static/assets/images/fao/home/schweetz.png\" alt=\"only-at-fao\" />",
		"p" : "See our 4,000 square foot sweet shop, BIG Piano and so much more.",
		"button" : "Explore our Flagship Store"
	},
	"section-3" : {
		"header" : "Timeless Classics",
		"p" : "See how we've provided perfect toys to generations of kids.",
		"button" : "Explore Our History"
	},
	"section-4" : {
		"header" : "<img src=\"/mwodt-static/assets/images/fao/home/whatnot-workshop.png\" alt=\"muppets-whatnot\" />",
		"p" : "Build a zany, one-of-a-kind Muppet",
		"button" : "Design Your Whatnot"
	},
	"section-5" : {
		"header" : "Personal Shopper",
		"p" : "Let us find gifts tailored to your needs, time and budget",
		"button" : "Let Us Shop for You"
	}
}