{
  "fao": {
    ".global-nav-my-account img": {"src":"/mwodt-static/assets/images/fao/global-nav/fao-icon-my-account.png",
    								"style": "width:35px"},
    ".global-nav-my-account div": "My Account",
    ".global-nav-my-account" : {"style" : "padding:12px 0px 8px 0px;width:88px; font-size:12px;font-family:warnock-semibold-display"},
    ".global-nav-my-account:hover" : {"style" : "background-color: rgba(0, 0, 0, .1)"} 
  }
    
}