{
	"fao": {
		".minimized-footer-top-row" : "© 2015 FAO Schwarz<sup>®</sup>. All rights reserved. Use of this site signifies your acceptance of FAO Schwarz<sup>®</sup> website",
		".minimized-footer-bottom-row" : "<a href=\"#\">terms and conditions</a> and <a href=\"#\">privacy policy</a>."
	}
}