{ 
	"angry": { 
		"img": {"src": "/mwodt-static/assets/images/shop-by/angry-birds.png"}
	},
	"barbie": { 
		"img": {"src": "/mwodt-static/assets/images/shop-by/barbie.png"}
	},
	"cars": { 
		"img": {"src": "/mwodt-static/assets/images/shop-by/cars.png"}
	},
	"disney": {
		"img": {"src": "/mwodt-static/assets/images/shop-by/disney-princess.png"}
	},
	"docstuff": {
		"img": {"src": "/mwodt-static/assets/images/shop-by/dream-lites.png"}
	},
	"frozen": {
		"img": {"src": "/mwodt-static/assets/images/shop-by/frozen.png"}
	},
	"hellokitty": {
		"img": {"src": "/mwodt-static/assets/images/shop-by/hello-kitty.png"}
	},
	"jake": {
		"img": {"src": "/mwodt-static/assets/images/shop-by/jake.png"}
	},
	"marvel": {
		"img": {"src": "/mwodt-static/assets/images/shop-by/marvel.png"}
	}
}