<svg
    xmlns="http://www.w3.org/2000/svg"
    xmlns:xlink="http://www.w3.org/1999/xlink" version="1.1" x="0px" y="0px" width="320" height="320" viewBox="0 0 320 320" enable-background="new 0 0 320 320" xml:space="preserve">
    <clipPath id="mask">
        <rect id="maskShape" x="-100" y="85" width="360" height="150"/>
    </clipPath>
    <g id="tag" clip-path="url(#mask)" cursor="pointer" onclick="top.showBabyRegistry();">
        <rect x="-100" y="85" fill="#5E2D91" width="500" height="150"/>
        <path opacity="0.4" fill="#FFFFFF" d="M45 177l-5 5l-22-22l22-22l5 5l-17 17L45 177z M276 143l5-5 l22 22l-22 22l-5-5l17-17L276 143z"/>
        <path fill="#FFFFFF" d="M86.5 172.7c0 1.7-1.3 3.1-2.9 3.1c-1.6 0-2.6-1-3.1-2c-1.7 0.5-3.7 2.5-4.8 4.7V189h4.2v3.9H67.5V189 h3.6v-15.3h-3.6v-4h8v5.3c1.8-3.2 4.5-5.7 7.2-5.7C85.2 169.3 86.5 170.9 86.5 172.7z M93.3 182.8c0.6 4.4 3.9 6.5 8.4 6.5 c2.9 0 5.5-0.9 8.2-2.5l-0.4 4.2c-2.4 1.5-5.4 2.2-8.5 2.2c-7.4 0-12.5-4.8-12.5-11.9c0-6.5 4.4-12.1 11.5-12.1 c7.1 0 10.9 5.1 10.9 11c0 0.9-0.1 1.8-0.2 2.5H93.3z M93.3 179.3h12.9c-0.2-3.7-2.5-6.2-6.4-6.2 C96.7 173.1 93.9 175.2 93.3 179.3z M137.5 193.3c0 2.8-0.8 5.1-2.1 6.8c-1.9 2.4-5.1 3.4-8.7 3.4c-3.8 0-6.9-1.2-8.4-2.7 c-0.9-0.9-1.2-1.8-1.2-2.8c0-1.6 1.2-3 2.9-3c1.6 0 2.7 1.1 2.7 2.6c0 0.4-0.1 0.9-0.3 1.3c0.8 0.3 2.1 0.8 4.1 0.8 c2.2 0 4.1-0.6 5.4-2.2c0.8-1 1.2-2.4 1.2-4.2v-4c-1.8 1.9-3.9 3.3-7.2 3.3c-5.9 0-10.8-4.7-10.8-11.5c0-6.4 4.7-11.8 11.1-11.8 c3.1 0 5.4 1.2 7.1 2.7v-2.3h8v4h-3.6V193.3z M119.6 181.1c0 4.6 2.9 7.6 7 7.6c2.5 0 4.6-1.2 6.3-2.9v-10.1 c-1.6-1.3-3.5-2.3-6.2-2.3C122.6 173.3 119.6 176.4 119.6 181.1z M144.6 189h3.8v-15.3h-3.8v-4h8.4V189h3.7v3.9h-12.1V189z M146.8 161.5c0-1.8 1.6-3.3 3.4-3.3c1.8 0 3.3 1.5 3.3 3.3c0 1.9-1.6 3.4-3.4 3.4C148.3 164.9 146.8 163.4 146.8 161.5z M176.3 177.3c-1.6 0-2.8-1-2.8-2.6c0-0.4 0.1-0.8 0.2-1.2c-0.9-0.4-2.3-0.7-3.7-0.7c-2.9 0-4.6 1.4-4.6 2.9 c0 1.7 1.8 2.4 5.5 3.4c5 1.3 8.6 2.6 8.6 7c0 4.6-4.4 7.2-9.4 7.2c-3.5 0-7-1.2-8.6-2.7c-0.9-0.9-1.3-1.8-1.3-3 c0-1.5 1.1-2.8 2.6-2.8c1.5 0 2.7 1 2.7 2.7c0 0.4-0.1 0.8-0.2 1.2c0.9 0.5 2.6 1.1 4.7 1.1c2.8 0 5-1.1 5-3.1 c0-1.7-1.7-2.5-5.1-3.3c-5.9-1.5-9.1-2.9-9.1-7.1c0-3.5 3.2-6.9 9.1-6.9c3 0 6 1 7.5 2.5c0.8 0.8 1.2 1.8 1.2 2.8 C178.8 176.2 177.8 177.3 176.3 177.3z M187.6 190.4c-0.4-0.9-0.7-2.1-0.7-3.4v-13.3h-4.3v-4h4.3v-5.3l4.6-1.9v7.2h7v4h-7v12.5 c0 0.8 0.1 1.3 0.3 1.8c0.4 0.8 1.3 1.1 2.6 1.1c1.4 0 3.1-0.6 4.4-1.3l-0.5 4.1c-1.3 0.7-3.1 1.3-5.2 1.3 C190.6 193.3 188.7 192.4 187.6 190.4z M221.5 172.7c0 1.7-1.3 3.1-2.9 3.1c-1.6 0-2.6-1-3.1-2c-1.7 0.5-3.7 2.5-4.8 4.7V189h4.2 v3.9h-12.4V189h3.6v-15.3h-3.6v-4h8v5.3c1.8-3.2 4.5-5.7 7.2-5.7C220.2 169.3 221.5 170.9 221.5 172.7z M228 203.5 c-2.6 0-4.4-1.4-4.4-3.3c0-1.7 1.1-2.6 2.5-2.6c1.3 0 2.2 1 2.5 1.9c0.8-0.3 1.5-0.9 2.4-2.1c0.4-0.7 0.9-1.6 1.4-2.6l1.6-3.2 l-8.5-17.9h-3v-4h11.3v3.8h-3.5c0 0 6.1 13.7 6 13.7l6.1-13.7h-3.7v-3.8h11.1v4h-3l-10.9 23.2c-0.6 1.2-1.2 2.2-1.8 3.1 C232.3 202.3 230.4 203.5 228 203.5z M73.1 155.6l-0.8 1.6h-2v-23.6h-2.4v-2.6h5.5v12.7c1.2-1.2 2.7-2.2 4.9-2.2 c4 0 7.3 3.3 7.3 8c0 4.4-3.2 8-7.6 8C76 157.4 74.4 156.7 73.1 155.6z M82.4 149.4c0-3.3-2-5.3-4.7-5.3c-1.8 0-3.2 0.8-4.3 2 v7.2c1.1 0.8 2.5 1.5 4.3 1.5C80.2 154.7 82.4 152.7 82.4 149.4z M88.2 153c0-2.8 2.5-4.6 6-4.6c1.6 0 3.4 0.4 4.2 0.6v-1.8 c0-0.9-0.3-1.6-0.7-2.1c-0.6-0.8-1.7-1.2-3.2-1.2c-1 0-1.5 0.2-2 0.5c0.1 0.3 0.2 0.6 0.2 0.9c0 1-0.8 1.8-1.8 1.8 c-1.1 0-1.8-0.8-1.8-1.8c0-1.8 2-3.7 5.9-3.7c2.4 0 4.1 0.7 5.2 1.9c0.8 0.9 1.2 2.1 1.2 3.5v7.6h2.4v2.6h-5.3v-1.9 c-1.3 1.2-3.2 2.1-5.3 2.1C90.4 157.4 88.2 155.8 88.2 153z M98.5 153.2v-2.5c-1-0.3-2.4-0.5-3.8-0.5c-2.2 0-3.4 1-3.4 2.5 c0 1.4 1 2.3 2.8 2.3C95.8 155.1 97.3 154.3 98.5 153.2z M109.9 155.6l-0.8 1.6h-2v-23.6h-2.4v-2.6h5.5v12.7 c1.2-1.2 2.7-2.2 4.9-2.2c4 0 7.3 3.3 7.3 8c0 4.4-3.2 8-7.6 8C112.8 157.4 111.2 156.7 109.9 155.6z M119.2 149.4 c0-3.3-2-5.3-4.7-5.3c-1.8 0-3.2 0.8-4.3 2v7.2c1.1 0.8 2.5 1.5 4.3 1.5C117 154.7 119.2 152.7 119.2 149.4z M127.3 164.2 c-1.7 0-2.9-1-2.9-2.2c0-1.1 0.8-1.8 1.7-1.8c0.9 0 1.5 0.6 1.7 1.3c0.5-0.2 1-0.6 1.6-1.4c0.3-0.5 0.6-1 1-1.8l1-2.1l-5.7-11.9 h-2v-2.6h7.5v2.5h-2.4c0 0 4 9.2 4 9.2l4.1-9.2h-2.5v-2.5h7.4v2.6h-2l-7.3 15.5c-0.4 0.8-0.8 1.5-1.2 2.1 C130.2 163.4 128.8 164.2 127.3 164.2z"/>
    </g>
    <g id="dotGroup1" pointer-events="none">
        <path class="dot" fill="#6DCFF6" d="M37.1,248.3C20,262.7,7.8,238,15.9,228.9C30.8,212.1,51.5,235.7,37.1,248.3"/>
        <path class="dot" fill="#F7941E" d="M13,208.6c5.2,4.2,8.8-3,6.4-5.6C14.9,198.2,8.7,205,13,208.6"/>
        <path class="dot" fill="#BFD730" d="M84,247.1c-6.2,2.5-1.7,9.1,1.8,8.3C92.2,253.8,89.3,245,84,247.1"/>
    </g>
    <g id="dotGroup2" pointer-events="none">
        <path class="dot" fill="#6DCFF6" d="M201.6,129.3c10.6-7.8,18,5.5,13.1,10.4C205.5,148.8,192.8,136.1,201.6,129.3"/>
        <path class="dot" fill="#BFD730" d="M176.7,70.8c-36.3,18.2-6.7,50.2,9.9,46.9C222.7,110.6,205.9,59.5,176.7,70.8"/>
        <path class="dot" fill="#7961AA" d="M143.5,85.1c-1,13.1-15.9,10-16.4,3.1C126.3,75.3,144.2,74,143.5,85.1"/>
        <path class="dot" fill="#F7941E" d="M228.3,109.9c-10.3,19.2,15,26.6,21.9,17.2C263.2,109.6,237.3,93.7,228.3,109.9"/>
    </g>
    <script xlink:href="https://cdnjs.cloudflare.com/ajax/libs/gsap/latest/TweenMax.min.js" />
    <script type="text/javascript">
    <![CDATA[
        TweenMax.to("#dotGroup1",6,{rotation:-20,ease:Sine.easeInOut, yoyo:true, repeat:-1, transformOrigin:"50% 50%"});
        TweenMax.to("#dotGroup2",4,{rotation:20,ease:Sine.easeInOut, yoyo:true, repeat:-1, transformOrigin:"50% 50%"});
        TweenMax.staggerTo(".dot",2,{scale:.9,ease:Back.easeInOut, yoyo:true, repeat:-1, transformOrigin:"50% 50%"},1);
        var isShown=true;
        document.show=function(){
            isShown = true;
            TweenMax.to("#tag",.5,{x:0, ease:Back.easeOut});
            TweenMax.to("#maskShape",.5,{attr:{x:-100},ease:Back.easeOut});
            TweenMax.to("#dotGroup2",.5,{x:0, y:0, ease:Back.easeOut, scale:1, transformOrigin:"50% 50%"});
        }
        document.hide=function(){
            isShown = false;
            TweenMax.to("#tag",.5,{x:-250, ease:Back.easeOut});
            TweenMax.to("#maskShape",.5,{attr:{x:-30},ease:Back.easeOut});
            TweenMax.to("#dotGroup2",.5,{x:-170, y:-20, scale:.7, transformOrigin:"50% 50%", ease:Back.easeOut});
        }
        document.isShown = function(){
            return isShown;
        }
    ]]>
    </script>
</svg>