{
    "startTime": "",
    "workflowState": "ACTIVE",
    "previewable": true,
    "ecr:lastModified": "2015-07-22T13:47:37.885+05:30",
    "priority": 10,
    "triggers": [{
        "exactLocation": false,
        "dvalIDs": ["829173116"]
    }],
    "ecr:lastModifiedBy": "admin",
    "workflowNote": "",
    "endTime": "",
    "ecr:type": "content-item",
    "userSegments": ["CategoryOnly"]
}