{
    "startTime": "",
    "workflowState": "INACTIVE",
    "previewable": true,
    "ecr:lastModified": "2015-07-16T15:40:27.616+05:30",
    "priority": 10,
    "triggers": [{"exactLocation": false}],
    "ecr:lastModifiedBy": "admin",
    "workflowNote": "",
    "endTime": "",
    "ecr:type": "content-item",
    "userSegments": []
}