{
    "startTime": "",
    "workflowState": "ACTIVE",
    "previewable": true,
    "ecr:lastModified": "2015-07-23T13:09:22.868+05:30",
    "priority": 10,
    "triggers": [{"exactLocation": false}],
    "ecr:lastModifiedBy": "admin",
    "workflowNote": "",
    "endTime": "",
    "ecr:type": "content-item",
    "userSegments": []
}