{
    "startTime": "",
    "workflowState": "ACTIVE",
    "previewable": true,
    "ecr:lastModified": "2015-07-22T13:20:05.550+05:30",
    "priority": 20,
    "triggers": [{"exactLocation": false}],
    "ecr:lastModifiedBy": "admin",
    "workflowNote": "",
    "endTime": "",
    "ecr:type": "content-item",
    "userSegments": ["CategoryOnly"]
}